Sentiment, Topics, and Emotional Patterns in AI Startup Reviews
…
## Topics used: 26

topic_cluster_counts <- rq2_df %>%
  count(cluster, topic_title) %>%
  group_by(cluster) %>%
  mutate(
    cluster_total = sum(n),
    prop = n / cluster_total
  ) %>%
  ungroup()

print(topic_cluster_counts)

## # A tibble: 96 × 5
##    cluster topic_title                             n cluster_total     prop
##    <fct>   <fct>                               <int>         <int>    <dbl>
##  1 1       Account Management Issues             923         10547 0.0875  
##  2 1       Collaborative Analytical Platforms      3         10547 0.000284
##  3 1       Concerns Over AI Guidance               8         10547 0.000759
##  4 1       Concerns Over Subscription Services   116         10547 0.0110  
##  5 1       Consumer Complaints on Services       254         10547 0.0241  
##  6 1       Conversational AI Experience          111         10547 0.0105  
##  7 1       Customer Support Challenges            17         10547 0.00161 
##  8 1       Exceptional Customer Support          305         10547 0.0289  
##  9 1       Feedback on User Experience           166         10547 0.0157  
## 10 1       Privacy Concerns and User Rights      177         10547 0.0168  
## # ℹ 86 more rows
…
topic_satisfaction_final <- topic_satisfaction %>%
  left_join(
    topic_satisfaction_boot %>%
      select(topic_title, mean_estimate, ci_lower, ci_upper),
    by = "topic_title"
  )

print(topic_satisfaction_final)

## # A tibble: 26 × 11
##    topic_title               n mean_satisfaction sd_satisfaction se_satisfaction
##    <fct>                 <int>             <dbl>           <dbl>           <dbl>
##  1 Collaborative Analyt…   777             0.943           0.299         0.0107 
##  2 Python Script Troubl…   301             0.924           0.352         0.0203 
##  3 User-Friendly Testin…   208             0.913           0.396         0.0274 
##  4 User Experience with…   541             0.900           0.405         0.0174 
##  5 Topic 27                165             0.879           0.466         0.0363 
##  6 User Experience and …  3581             0.841           0.528         0.00882
##  7 Concerns Over AI Gui…   168             0.833           0.544         0.0419 
##  8 Exceptional Customer…   502             0.695           0.681         0.0304 
##  9 Feedback on User Exp…  1380             0.654           0.740         0.0199 
## 10 Topic 26                243             0.556           0.793         0.0508 
## # ℹ 16 more rows
## # ℹ 6 more variables: positive_prop <dbl>, negative_prop <dbl>,
## #   neutral_prop <dbl>, mean_estimate <dbl>, ci_lower <dbl>, ci_upper <dbl>
…
